{ 
    "lexicon" : [

        {
            "slotname"  : "pricerange",
            "valuename" : "moderate",
            "phrases"   : [ "moderate", "moderately priced" ]
        },
        {
            "slotname"  : "food",
            "valuename" : "Italian",
            "phrases"   : [ "italian", "pizza", "pasta" ]
        },
        {
            "slotname"  : "food",
            "valuename" : "Mexican/tex mex",
            "phrases"   : [ "mexican", "tex mex", "tex - mex" ]
        },
        {
            "slotname"  : "food",
            "valuename" : "Seafood",
            "phrases"   : [ "Seafood", "sea food" ]
        },
        {
            "slotname"  : "food",
            "valuename" : "Middleeastern",
            "phrases"   : [ "Middleeastern", "middle eastern" ]
        },
        {
            "slotname"  : "food",
            "valuename" : "Fastfood",
            "phrases"   : [ "Fastfood", "fast food" ]
        },
        {
            "slotname"  : "food",
            "valuename" : "Pub food",
            "phrases"   : [ "Pubfood", "Pub food" ]
        },
        {
            "slotname"  : "area",
            "valuename" : "castlehill",
            "phrases"   : [ "castle hill" ]
        },
        {
            "slotname"  : "area",
            "valuename" : "cherryhinton",
            "phrases"   : [ "cherry hinton" ]
        },
        {
            "slotname"  : "area",
            "valuename" : "citycentre",
            "phrases"   : [ "citycentre", "city centre", "city center", "central", "centre of town" ]
        },
        {
            "slotname"  : "area",
            "valuename" : "fenditton",
            "phrases"   : [ "fen ditton" ]
        },
        {
            "slotname"  : "area",
            "valuename" : "kingshedges",
            "phrases"   : [ "kings hedges", "king's hedges" ]
        },
        {
            "slotname"  : "area",
            "valuename" : "newchesterton",
            "phrases"   : [ "new chesterton" ]
        },
        {
            "slotname"  : "area",
            "valuename" : "riverside",
            "phrases"   : [ "riverside", "on the riverside", "near the river", "by the river" ]
        },
        {
            "slotname"  : "near",
            "valuename" : "Kettle's Yard",
            "phrases"   : [ "Kettle's Yard", "kettles yard" ]
        },
        {
            "slotname"  : "near",
            "valuename" : "Saint John's College",
            "phrases"   : [ "Saint John's College", "st John's College", "st john ' s college" ]
        },
        {
            "slotname"  : "near",
            "valuename" : "Saint Barnabas Press Gallery",
            "phrases"   : [ "Saint Barnabas Press Gallery", "st barnabas press gallery" ]
        },
        {
            "slotname"  : "near",
            "valuename" : "Saint Catharine's College",
            "phrases"   : [ "Saint Catharine's College", "st catharine's college" ]
        },
        {
            "slotname"  : "near",
            "valuename" : "Little Saint Mary's Church",
            "phrases"   : [ "Little Saint Mary's Church", "little St Mary's Church" ]
        },
        {
            "slotname"  : "near",
            "valuename" : "Great Saint Mary's Church",
            "phrases"   : [ "Great Saint Mary's Church", "great St Mary's Church" ]
        },
        {
            "slotname"  : "near",
            "valuename" : "Michaelhouse Centre",
            "phrases"   : [ "Michaelhouse Centre", "michael house centre" ]
        },
        {
            "slotname"  : "postcode",
            "valuename" : "",
            "phrases"   : [ "postcode", "post code", "postal code", "zip code" ]
        },
        {
            "slotname"  : "phone",
            "valuename" : "",
            "phrases"   : [ "phone number", "telephone number", "number" ]
        },
        {
            "slotname"  : "price",
            "valuename" : "",
            "phrases"   : [ "price", "prices" ]
        },
        {
            "slotname"  : "addr",
            "valuename" : "",
            "phrases"   : [ "address" ]
        },
        {
            "slotname"  : "pricerange",
            "valuename" : "",
            "phrases"   : [ "pricerange", "price range" ]
        },
        {
            "slotname"  : "food",
            "valuename" : "",
            "phrases"   : [ "cuisine", "kind of food", "food type" ]
        },
        {
            "slotname"  : "area",
            "valuename" : "",
            "phrases"   : [ "area", "where", "whereabouts" ]
        }
    ]

}

